<?xml version="1.0" encoding="utf-8"?>
<!-- Generator: Adobe Illustrator 20.1.0, SVG Export Plug-In . SVG Version: 6.00 Build 0)  -->
<svg version="1.1" id="Layer_1" xmlns="http://www.w3.org/2000/svg" xmlns:xlink="http://www.w3.org/1999/xlink" x="0px" y="0px"
	 viewBox="0 0 350.5 349" style="enable-background:new 0 0 350.5 349;" xml:space="preserve">
<style type="text/css">
	.st0{fill:#00ADEE;}
	.st1{fill:#FFFFFF;}
	.st2{fill:#009FDF;}
	.st3{fill:none;}
	.st4{clip-path:url(#SVGID_2_);}
	.st5{fill:#672858;}
	.st6{fill:#E7A59A;}
	.st7{fill:#89C8DA;}
	.st8{fill:#A57356;}
	.st9{fill:#5FB8CF;}
	.st10{fill:#0091B4;}
	.st11{fill:#40C1AC;}
	.st12{fill:#005577;}
	.st13{fill:#D9EEF3;}
	.st14{fill:#3E4A4A;}
</style>
<g>
	<g>
		<path class="st0" d="M175.1,342.9c-92.8,0-168.4-75.5-168.4-168.4S82.3,6.1,175.1,6.1s168.4,75.5,168.4,168.4
			S268,342.9,175.1,342.9z"/>
		<g>
			<path class="st1" d="M175.1,7.3c92.3,0,167.2,74.8,167.2,167.2s-74.8,167.2-167.2,167.2S8,266.8,8,174.5S82.8,7.3,175.1,7.3
				 M175.1,4.9c-45.3,0-87.9,17.6-119.9,49.7c-32,32-49.7,74.6-49.7,119.9s17.6,87.9,49.7,119.9s74.6,49.7,119.9,49.7
				S263,326.5,295,294.4c32-32,49.7-74.6,49.7-119.9S327.1,86.6,295,54.6C263,22.6,220.4,4.9,175.1,4.9L175.1,4.9z"/>
		</g>
	</g>
	<g>
		<path class="st2" d="M175.1,344.1C81.6,344.1,5.5,268,5.5,174.5S81.6,4.9,175.1,4.9S344.7,81,344.7,174.5S268.7,344.1,175.1,344.1
			z"/>
		<g>
			<path class="st1" d="M175.1,7.3c92.3,0,167.2,74.8,167.2,167.2c0,92.3-74.8,167.2-167.2,167.2S8,266.8,8,174.5
				S82.8,7.3,175.1,7.3 M175.1,2.5c-94.8,0-172,77.1-172,172s77.2,172.1,172.1,172.1s172.1-77.2,172.1-172.1S270,2.5,175.1,2.5
				L175.1,2.5z"/>
		</g>
	</g>
	
		<ellipse transform="matrix(0.873 -0.4877 0.4877 0.873 -62.8803 107.5603)" class="st3" cx="175.1" cy="174.5" rx="167.2" ry="167.2"/>
	<g>
		<g>
			<defs>
				<circle id="SVGID_1_" cx="173.4" cy="177.1" r="164.7"/>
			</defs>
			<clipPath id="SVGID_2_">
				<use xlink:href="#SVGID_1_"  style="overflow:visible;"/>
			</clipPath>
			<g class="st4">
				<g>
					<polygon class="st5" points="254.5,282.9 254.2,284.2 251.3,284.2 251.7,282.9 					"/>
					<path class="st6" d="M268.5,239.6c-0.7,2.3-1.7,10.3-3.1,13.9c-1.4,3.6-4.9,10.4-9.7,24.7c-0.3,0.8-0.9,3.1-1.1,4.8
						c-0.4,0-1.8,0-2.9,0c0.6-1.3,2-3.2,2.7-5.5c2.4-7.6,3.7-18.8,5.6-25.1c1.8-5.7,4-11,4.8-13.5
						C265.6,236.2,269.3,237,268.5,239.6z"/>
					<g>
						<path class="st6" d="M277.6,241.5c0.1,3.9-2.1,42.7-2.1,42.7l-1.3-3.8c0.6-6.3-0.2-15.2-1.5-21.8c-1.3-6.6-1.2-8.4-0.9-9.6
							c0.2-1.3,1.2-7.4,1.2-7.4h4.6V241.5z"/>
						<path class="st5" d="M274.4,278c0,0-1.1,0.2-1.5,0.9c0.5,1.5,0.8,5.2,0.8,5.2h0.5L274.4,278z"/>
						<polygon class="st5" points="275.6,284.2 279,284.2 275.6,282.7 						"/>
					</g>
					<path class="st7" d="M272.2,206.7c-1.3,2.2-4.8,3.7-6.2,9.9c-1.4,6.2-3.1,25.4-3.1,25.4l15.4,1.8c0,0,3.6-32.6,2.9-36.4
						C280.7,203.6,272.9,205.5,272.2,206.7z"/>
					<g>
						<g>
							<path class="st8" d="M274.7,150.5c2.8,0.6,4.8,6,5.3,9c0.5,3.4-0.5,8.6,1.4,10.3c-3.6,0.1-6.6-0.2-10.4-1.9
								C268.1,157.1,271.3,149.8,274.7,150.5z"/>
							<g>
								<path class="st6" d="M271.2,163.4c-2.8-1.2-4.2-7.4-2.4-10.4c1.5-2.4,3.4-3,4.9-2.9c2.5,0.1,7.8,4.6,7.8,4.6l-1.2,0.6
									c0,0,0.9,2.4,0.7,4.2c-0.4,4.2-4.2,3.7-4.5,12.8c-0.1,2.8-2.3,2.1-2.2,0C274.5,167.8,271.2,165.2,271.2,163.4z"/>
							</g>
							<g>
								<path class="st5" d="M278,152.7c0.3,0.2,0.4,0.7,0.2,1c-0.2,0.3-0.7,0.4-1,0.2s-0.4-0.7-0.2-1
									C277.2,152.6,277.7,152.5,278,152.7z"/>
								
									<ellipse transform="matrix(0.5745 -0.8185 0.8185 0.5745 -8.7343 291.8414)" class="st5" cx="276.3" cy="154.3" rx="0.7" ry="0.7"/>
							</g>
						</g>
						<path class="st8" d="M274.2,150.3c1.4,2,0.8,4.2,0,6.5c-0.8,2.4,0.3,12.6,2.2,14.4c-2.1,0.3-5.4-0.5-7.2-1.5
							c-3.2-5-5.4-15.5-1.1-19.2c2.3-2,7.1-2.9,9.4,1C276.4,151,275.3,150.7,274.2,150.3z"/>
					</g>
					<g>
						<polygon class="st6" points="296.2,131.5 295.2,155.3 289.4,164.3 286.1,162.7 291.9,153.8 293.4,131.6 						"/>
						<path class="st7" d="M281.2,179.2c1.4-2.1,11.7-17.9,11.7-17.9l-4.9-2.9c0,0-7.6,11.1-9.5,13.9
							C277.6,173.4,279.7,181.5,281.2,179.2z"/>
						<g>
							<path class="st9" d="M278.3,172.2c-1.4,0-4.8,0-6.3,0c-5,11.4,6.7,27.1-1.3,36.8c2.2,0,6.3,0,8.5,0
								c-1.5-3.4,1.2-17.2,1.9-23.5C282.8,184.6,279.2,175.8,278.3,172.2z"/>
						</g>
						<polygon class="st6" points="277.3,172.2 280.3,185.2 273.5,172.2 						"/>
						<path class="st7" d="M269.9,172.3h3.6l7.6,13.3l-2.8-13.3h1c0,0,2.9,11.6,4.6,13.7c-1,2.7-2.8,5.5-1.8,24.2
							c-1.6,0-13.1,0-15.2,0c5.7-4.3,5.1-21.8,0.2-30.9C268.1,172.5,269.9,172.3,269.9,172.3z"/>
						<polygon class="st10" points="281.4,187.7 273.2,180.4 273.2,180.4 275,178 272.4,177.2 272.4,177.1 273.2,173.1 273.2,173.1 
							272.5,177.1 275.1,177.9 273.3,180.4 						"/>
						<polygon class="st6" points="252.2,131.5 253.1,155.3 258.9,164.3 262.2,162.7 256.4,153.8 254.9,131.6 						"/>
						<path class="st7" d="M267.1,179.2c-1.4-2.1-11.7-17.9-11.7-17.9l4.9-2.9c0,0,7.6,11.1,9.5,13.9
							C270.7,173.4,268.6,181.5,267.1,179.2z"/>
					</g>
				</g>
				<path class="st11" d="M306.4,101.4c-4.4-15-19-23.9-42.4-16.9c-23.5,7-30.8,22.3-26.4,37.3c4.4,15,19.4,23.8,42.4,16.9
					c1.7-0.5,3.4-1.1,4.9-1.7l20.7,9.5l-8-16.9C306.8,121.9,309.4,111.5,306.4,101.4z"/>
				<g>
					<g>
						<g>
							<path class="st12" d="M205.6,187.5c-9.8,9.1-20-7.6-9.9-14.8c19.9-14.2,32-39,51.8-60.7l0.8,6.5
								C237.4,141.9,226.1,168.6,205.6,187.5z"/>
						</g>
						<g>
							<g>
								<path class="st13" d="M249.5,119.5c-0.6,0.1-1.2-0.4-1.3-1l-0.8-6.5c-0.1-0.6,0.4-1.2,1-1.3l4.1-0.5c0.6-0.1,1.2,0.4,1.3,1
									l0.8,6.5c0.1,0.6-0.4,1.2-1,1.3L249.5,119.5z"/>
							</g>
							<path class="st13" d="M251.2,109.7c0.3-0.4,0.2-1-0.2-1.3s-1-0.2-1.3,0.2l-2.1,2.7c-0.3,0.4-0.2,1,0.2,1.3s1,0.2,1.3-0.2
								L251.2,109.7z"/>
						</g>
					</g>
					<g>
						<g>
							<path class="st6" d="M190.3,154.5c-2.1-2.5-5.3-3.8-9.2-2.7c-4.4,1.2-5.7,3.1-5.3,8.4c0.2,2.9-1.8,9.6-3.4,14
								c-2.6,7.3,16.6,4.2,18,1.4c1.8-3.6,2.6-8.1,2.3-10.5c0.3-0.8,0.3-1.8-0.4-2.1c0.4-0.5,0.6-1,0.1-1.6
								c-0.3-0.4-0.6-1.6-0.6-1.6l2.1-0.6C194,159.2,192.4,157,190.3,154.5z"/>
						</g>
						<path class="st8" d="M175.8,153.9c-0.3-1.7,1.2-3.4,2.9-3.3c1.7,0,3.1-0.7,2.7-1.5c1.7,0.8,1.8,3.1,0.6,4.3s-4.7,2.1-5.3,2.3
							c0.5,0.8,0.1,4.4-0.9,4.6C174,159,173.3,154.6,175.8,153.9z"/>
						
							<ellipse transform="matrix(0.8434 -0.5373 0.5373 0.8434 -54.5953 125.8476)" class="st5" cx="188.6" cy="156.6" rx="0.9" ry="0.9"/>
						
							<ellipse transform="matrix(0.8437 -0.5368 0.5368 0.8437 -55.2022 124.7341)" class="st5" cx="186.6" cy="157.2" rx="0.9" ry="0.9"/>
					</g>
					<g>
						<path class="st12" d="M153.8,173.1c10.7,0.4,44.1-1.1,53.7-0.7c-3.6,29.7-6.9,54.2-10.5,85.5c-16.3,2.9-30.4,5-46.4,6.4
							C153.5,233.2,148.2,208.7,153.8,173.1z"/>
					</g>
					<g>
						<path class="st13" d="M192.5,178.4l-2-5c-1.4,0-2.8,0.1-4.2,0.1l0.2,5.4L192.5,178.4z"/>
					</g>
					<path class="st13" d="M188.4,178.6c0.6-0.1,1.7-0.2,2.3-0.2c7.3,22.7,8.4,36.2-22.7,57.3c-3.6-0.4-11-2.2-11-2.2l3.8-9.6
						C186.6,210.7,192.2,198.9,188.4,178.6z"/>
					<g>
						<g>
							<path class="st12" d="M152.6,189.1c9.5,9.4,20.2-6.9,10.4-14.5c-19.4-14.9-38.6-42.2-57.5-63.9l-1,7.7
								C118.6,139.9,132.7,169.5,152.6,189.1z"/>
						</g>
						<g>
							<g>
								<path class="st13" d="M104.4,118.3c0.6,0,1.1-0.5,1.1-1.1l-0.1-6.5c0-0.6-0.5-1.1-1.1-1.1l-4.1,0.1c-0.6,0-1.1,0.5-1.1,1.1
									l0.1,6.5c0,0.6,0.5,1.1,1.1,1.1L104.4,118.3z"/>
							</g>
							<path class="st13" d="M101.4,108.9c-0.4-0.4-0.4-1,0-1.3c0.4-0.4,1-0.4,1.3,0l2.4,2.3c0.4,0.4,0.4,1,0,1.3
								c-0.4,0.4-1,0.4-1.3,0L101.4,108.9z"/>
						</g>
					</g>
					<g>
						<g>
							<path class="st6" d="M98.6,118.4c-0.5,0-1-0.4-1-0.9s0.4-1,0.9-1h2.7c0.5,0,1,0.4,1,0.9s-0.4,1-0.9,1H98.6z"/>
							<path class="st13" d="M98.5,111.5c-0.5,0-0.9-0.4-1-0.9c0-0.5,0.4-1,0.9-1h2.7c0.5,0,1,0.4,1,0.9s-0.4,1-0.9,1H98.5z"/>
							<path class="st6" d="M98.5,113.8c-0.5,0-1-0.4-1-0.9s0.4-0.9,0.9-1h2.7c0.5,0,1,0.4,1,0.9s-0.4,1-0.9,1H98.5z"/>
							<path class="st6" d="M98.6,116.1c-0.5,0-1-0.4-1-0.9s0.4-1,0.9-1h2.7c0.5,0,0.9,0.4,1,0.9c0,0.5-0.4,1-0.9,1H98.6z"/>
						</g>
					</g>
					<g>
						<g>
							<path class="st6" d="M255.3,118.7c0.5-0.1,0.9-0.5,0.8-1.1c-0.1-0.5-0.5-0.9-1.1-0.8l-2.7,0.3c-0.5,0.1-0.9,0.5-0.8,1
								c0.1,0.5,0.5,0.9,1.1,0.8L255.3,118.7z"/>
							<path class="st13" d="M254.5,111.9c0.5-0.1,0.9-0.5,0.8-1.1c-0.1-0.5-0.5-0.9-1.1-0.8l-2.7,0.3c-0.5,0.1-0.9,0.5-0.8,1.1
								c0.1,0.5,0.5,0.9,1.1,0.8L254.5,111.9z"/>
							<path class="st13" d="M254.8,114.2c0.5-0.1,0.9-0.5,0.8-1.1c-0.1-0.5-0.5-0.9-1.1-0.8l-2.6,0.3c-0.5,0.1-0.9,0.5-0.8,1.1
								c0.1,0.5,0.5,0.9,1.1,0.8L254.8,114.2z"/>
							<path class="st6" d="M255,116.5c0.5-0.1,0.9-0.5,0.8-1.1c-0.1-0.5-0.5-0.9-1.1-0.8l-2.7,0.3c-0.5,0.1-0.9,0.5-0.8,1.1
								c0.1,0.5,0.5,0.9,1.1,0.8L255,116.5z"/>
						</g>
					</g>
					<g>
						<g>
							<ellipse class="st1" cx="177.7" cy="80.6" rx="90.8" ry="65.2"/>
						</g>
						<g>
							<polygon class="st1" points="144.6,135.2 104.2,165 125,119.3 							"/>
						</g>
					</g>
				</g>
				<g>
					<g>
						<g>
							<path class="st14" d="M57.5,261.5c-3.8,28-10.1,71.4-14.5,104.6c-1,0-4-0.2-5.3-0.2c-0.1-31.7-1-73.5-2.7-104.9
								C34.1,244.2,59.8,244.1,57.5,261.5z"/>
						</g>
						<path class="st14" d="M42.9,368.1c0.5,0.9,3.3,1.9,4.6,1.2c1.3-0.7,4,0.6,1.8,1.9c-2.2,1.4-7.1,0.9-8.1-0.3c0,0.5,0,1.1,0,1.1
							h-3.8l0.4-3.8L42.9,368.1z"/>
					</g>
					<g>
						<g>
							<path class="st14" d="M41.2,261.5c-3.8,28-10.1,71.4-14.5,104.6c-1,0-4-0.2-5.3-0.2c-0.1-31.7-1-73.5-2.7-104.9
								C17.8,244.2,43.5,244.1,41.2,261.5z"/>
						</g>
						<path class="st14" d="M26.6,368.1c0.5,0.9,3.3,1.9,4.6,1.2c1.3-0.7,4,0.6,1.8,1.9c-2.2,1.4-7.1,0.9-8.1-0.3c0,0.5,0,1.1,0,1.1
							h-3.8l0.4-3.8L26.6,368.1z"/>
					</g>
					<g>
						<g>
							<path class="st5" d="M48.6,186.4c-6-8.4-23,1.7-15.2,10.3c28.3,31.4,43.6,42.6,56.3,54.9l6.4-5.6
								C87.4,234.3,69.1,215,48.6,186.4z"/>
							<g>
								<path class="st13" d="M99.7,251.8l-0.4,6.5c0,0.5-0.5,0.8-0.9,0.8c-0.5,0-0.9-0.4-0.8-0.9l0.1-1c0-0.1-0.1-0.1-0.1-0.1
									c-0.1,0-0.1,0-0.1,0.1l-0.1,1.5c0,0.5-0.4,0.9-0.9,0.8c-0.5,0-0.8-0.5-0.8-0.9l0.1-1.5c0-0.1-0.1-0.1-0.1-0.1
									c-0.1,0-0.1,0-0.1,0.1l-0.1,0.8c0,0.5-0.4,0.9-0.9,0.8c-0.5,0-0.8-0.5-0.8-0.9l0.1-0.8c0-0.1-0.1-0.1-0.1-0.1
									c-0.1,0-0.1,0-0.1,0.1v0.6c0,0.5-0.4,0.9-0.9,0.8c-0.5,0-0.8-0.5-0.8-0.9l0.3-5.1l-1.3-1.5l4.7-4.1L99.7,251.8z"/>
								<path class="st13" d="M102.3,256.1c0.4-0.3,0.4-0.9,0.1-1.2l-2.7-3c-0.3-0.4-0.9-0.4-1.2-0.1c-0.4,0.3-0.4,0.9-0.1,1.2
									l2.7,3C101.3,256.4,101.9,256.4,102.3,256.1z"/>
							</g>
						</g>
						<g>
							<g>
								<g>
									<g>
										<path class="st6" d="M47.7,184.6c0.6-3.6,1.2-9.8,1.2-10.3c0-0.3,0.5-0.7,0.4-1.4c-0.1-0.6-0.5-0.9-0.9-1
											c0.6-0.2,0.9-0.4,0.9-1c-0.1-0.5-0.3-1.8-0.3-1.8l2.4-0.1c0,0-1.1-2.8-2.6-5.9c-1.5-3.2-4.3-4.3-8.7-4.2
											c-4.9,0.1-7.9,4.5-8.1,8.7c-0.2,2.9-1.9,13.2-3.2,17.3C26.7,191.2,46.9,189.5,47.7,184.6z"/>
									</g>
									
										<ellipse transform="matrix(0.9495 -0.3137 0.3137 0.9495 -49.4131 22.8876)" class="st5" cx="46.4" cy="165" rx="1" ry="1"/>
									
										<ellipse transform="matrix(0.9502 -0.3117 0.3117 0.9502 -49.2368 21.9645)" class="st5" cx="44.1" cy="165" rx="1" ry="1"/>
								</g>
							</g>
							<g>
								<path class="st14" d="M49.1,184.5c12.1,34.8,12.1,90.2,12.1,90.2c-11.2,0-38,0-50.7,0c0,0,8-54.6,14.2-90.2
									C29.2,184.5,42.1,184.5,49.1,184.5z"/>
							</g>
							<g>
								<g>
									<polygon class="st13" points="43,184.6 47.3,184.5 48.3,188.6 42.9,189 									"/>
								</g>
								<g>
									<path class="st13" d="M43.9,188.9c-0.2-3,3-2.8,3.3-0.2c1.4,11.6,7.1,33.9,5,57.6c-2.7,2.2-6.9,5.6-6.9,5.6s-4.1-5.1-5.4-7
										C44,228.8,44.5,198.7,43.9,188.9z"/>
								</g>
							</g>
						</g>
						<path class="st11" d="M157,223.6c-0.7-23-18-41.2-54.1-40.1c-36.1,1-52.3,20.2-51.6,43.2s18.6,41.2,54.1,40.1
							c2.6-0.1,5.2-0.3,7.6-0.5l25.9,21.3l-5-27C149.9,252.9,157.5,239.1,157,223.6z"/>
						<g>
							<path class="st14" d="M40.4,193.9c-6-8.4-23,1.7-15.2,10.3C53.5,235.6,68.3,248.7,81,261l6.4-5.6
								C78.7,243.7,60.9,222.4,40.4,193.9z"/>
							<g>
								<path class="st6" d="M91,261.2l-0.4,6.5c0,0.5-0.5,0.8-1,0.8s-0.9-0.5-0.8-0.9l0.1-1c0-0.1-0.1-0.1-0.1-0.1
									c-0.1,0-0.1,0-0.1,0.1l-0.1,1.5c0,0.5-0.4,0.8-0.9,0.8s-0.8-0.4-0.8-0.9l0.1-1.5c0-0.1-0.1-0.1-0.1-0.1
									c-0.1,0-0.1,0-0.1,0.1l-0.1,0.8c0,0.5-0.4,0.9-0.9,0.8c-0.5,0-0.8-0.4-0.8-0.9l0.1-0.8c0-0.1,0-0.1-0.1-0.1s-0.1,0-0.1,0.1
									v0.6c0,0.5-0.4,0.9-0.9,0.8c-0.5,0-0.8-0.5-0.8-0.9l0.3-5.1l-1.3-1.5l4.7-4.1L91,261.2z"/>
								<path class="st6" d="M93.6,265.5c0.4-0.3,0.4-0.9,0.1-1.2l-2.7-3c-0.3-0.4-0.9-0.4-1.2-0.1c-0.4,0.3-0.4,0.9-0.1,1.2l2.7,3
									C92.6,265.8,93.2,265.8,93.6,265.5z"/>
							</g>
						</g>
					</g>
				</g>
				<path class="st12" d="M176.1,369.5c-0.1-31.7-1-73.5-2.7-104.9c-0.9-16.8,24.8-16.9,22.5,0.5c-3.8,28-10.1,71.4-14.5,104.6"/>
				<path class="st14" d="M183.3,371.6c0.5,0.9,3.3,1.9,4.6,1.2c1.3-0.7,4,0.6,1.8,1.9c-2.2,1.4-7.1,0.9-8.1-0.3c0,0.5,0,1.1,0,1.1
					h-3.8l0.4-3.8L183.3,371.6z"/>
				<path class="st12" d="M181.5,259c-3.8,28-10.1,71.4-14.5,104.6c-1,0-4-0.2-5.3-0.2c-0.1-31.7-1-73.5-2.7-104.9"/>
				<path class="st14" d="M167,371.6c0.5,0.9,3.3,1.9,4.6,1.2c1.3-0.7,4,0.6,1.8,1.9c-2.2,1.4-7.1,0.9-8.1-0.3c0,0.5,0,1.1,0,1.1
					h-3.8l0.4-3.8L167,371.6z"/>
				<path class="st14" d="M40,173.7c1.3,3,5.8,3.3,7.2-0.5c0,0-1.3,1.6-3.4,1.8C41.2,175.3,40,173.7,40,173.7L40,173.7z"/>
				<path class="st14" d="M32.2,159c-0.7-3.5,2.4-7,6-7s6.3-1.6,5.6-3.2c3.5,1.6,4.5,6.5,2.1,8.9c-2.4,2.5-7.9,4.1-11.8,4.8
					c1.1,1.6,0.2,9.2-1.7,9.6C28.7,169.7,27.1,160.6,32.2,159z"/>
				<path class="st14" d="M185.6,163.6c1.3,3,5.8,3.3,7.2-0.5c0,0-1.3,1.6-3.4,1.8C186.9,165.1,185.6,163.6,185.6,163.6L185.6,163.6
					z"/>
			</g>
		</g>
	</g>
	<circle class="st2" cx="149.2" cy="78.2" r="8.7"/>
	<circle class="st2" cx="181.8" cy="78.2" r="8.7"/>
	<circle class="st2" cx="214.5" cy="78.2" r="8.7"/>
	<g>
		<circle class="st1" cx="84.9" cy="223.9" r="5.3"/>
		<circle class="st1" cx="104.6" cy="223.9" r="5.3"/>
		<circle class="st1" cx="124.4" cy="223.9" r="5.3"/>
	</g>
	<g>
		<circle class="st1" cx="263.6" cy="111" r="2.6"/>
		<circle class="st1" cx="273.5" cy="111" r="2.6"/>
		<circle class="st1" cx="283.3" cy="111" r="2.6"/>
	</g>
</g>
</svg>
